<svg width="400" height="56" viewBox="0 0 400 56" fill="none" xmlns="http://www.w3.org/2000/svg">
<path d="M113.78 33V21.64H118.548C119.06 21.64 119.529 21.7467 119.956 21.96C120.383 22.1733 120.756 22.456 121.076 22.808C121.396 23.16 121.641 23.5547 121.812 23.992C121.983 24.4293 122.068 24.8773 122.068 25.336C122.068 25.9653 121.924 26.568 121.636 27.144C121.359 27.7093 120.959 28.168 120.436 28.52C119.924 28.872 119.327 29.048 118.644 29.048H115.572V33H113.78ZM115.572 27.464H118.532C118.873 27.464 119.172 27.3733 119.428 27.192C119.684 27 119.881 26.744 120.02 26.424C120.169 26.104 120.244 25.7413 120.244 25.336C120.244 24.92 120.159 24.552 119.988 24.232C119.817 23.912 119.593 23.6667 119.316 23.496C119.049 23.3147 118.756 23.224 118.436 23.224H115.572V27.464ZM122.823 30.552C122.823 30.0187 122.972 29.5547 123.271 29.16C123.58 28.7547 124.002 28.4453 124.535 28.232C125.068 28.008 125.687 27.896 126.391 27.896C126.764 27.896 127.143 27.9227 127.527 27.976C127.922 28.0293 128.268 28.1147 128.567 28.232V27.704C128.567 27.1173 128.391 26.6587 128.039 26.328C127.687 25.9973 127.18 25.832 126.519 25.832C126.05 25.832 125.607 25.9173 125.191 26.088C124.775 26.248 124.332 26.4773 123.863 26.776L123.271 25.592C123.826 25.2187 124.38 24.9413 124.935 24.76C125.5 24.5787 126.092 24.488 126.711 24.488C127.831 24.488 128.711 24.7867 129.351 25.384C130.002 25.9707 130.327 26.808 130.327 27.896V31.016C130.327 31.2187 130.359 31.3627 130.423 31.448C130.498 31.5333 130.62 31.5813 130.791 31.592V33C130.631 33.032 130.487 33.0533 130.359 33.064C130.231 33.0747 130.124 33.08 130.039 33.08C129.666 33.08 129.383 32.9893 129.191 32.808C128.999 32.6267 128.887 32.4133 128.855 32.168L128.807 31.688C128.444 32.1573 127.98 32.52 127.415 32.776C126.85 33.032 126.279 33.16 125.703 33.16C125.148 33.16 124.652 33.048 124.215 32.824C123.778 32.5893 123.436 32.2747 123.191 31.88C122.946 31.4853 122.823 31.0427 122.823 30.552ZM128.151 31.064C128.279 30.9253 128.38 30.7867 128.455 30.648C128.53 30.5093 128.567 30.3867 128.567 30.28V29.32C128.268 29.2027 127.954 29.1173 127.623 29.064C127.292 29 126.967 28.968 126.647 28.968C126.007 28.968 125.484 29.096 125.079 29.352C124.684 29.608 124.487 29.96 124.487 30.408C124.487 30.6533 124.551 30.888 124.679 31.112C124.818 31.336 125.01 31.5173 125.255 31.656C125.511 31.7947 125.826 31.864 126.199 31.864C126.583 31.864 126.951 31.7893 127.303 31.64C127.655 31.4907 127.938 31.2987 128.151 31.064ZM136.254 33.16C135.604 33.16 135.012 33.048 134.478 32.824C133.956 32.5893 133.502 32.2693 133.118 31.864C132.734 31.4587 132.436 30.9947 132.222 30.472C132.02 29.9493 131.918 29.3947 131.918 28.808C131.918 28.0187 132.094 27.2987 132.446 26.648C132.809 25.9973 133.31 25.4747 133.95 25.08C134.601 24.6853 135.369 24.488 136.254 24.488C137.108 24.488 137.849 24.68 138.478 25.064C139.118 25.4373 139.588 25.9387 139.886 26.568L138.174 27.112C137.982 26.76 137.71 26.488 137.358 26.296C137.017 26.0933 136.638 25.992 136.222 25.992C135.753 25.992 135.326 26.1147 134.942 26.36C134.569 26.5947 134.27 26.9253 134.046 27.352C133.833 27.768 133.726 28.2533 133.726 28.808C133.726 29.3413 133.838 29.8267 134.062 30.264C134.286 30.6907 134.585 31.032 134.958 31.288C135.342 31.5333 135.769 31.656 136.238 31.656C136.526 31.656 136.804 31.608 137.07 31.512C137.348 31.4053 137.588 31.2667 137.79 31.096C137.993 30.9147 138.137 30.7173 138.222 30.504L139.95 31.016C139.769 31.432 139.497 31.8 139.134 32.12C138.782 32.44 138.361 32.696 137.87 32.888C137.39 33.0693 136.852 33.16 136.254 33.16ZM145.114 33.16C144.463 33.16 143.871 33.048 143.338 32.824C142.815 32.5893 142.362 32.2693 141.978 31.864C141.594 31.4587 141.295 30.9947 141.082 30.472C140.879 29.9493 140.778 29.3947 140.778 28.808C140.778 28.0187 140.954 27.2987 141.306 26.648C141.668 25.9973 142.17 25.4747 142.81 25.08C143.46 24.6853 144.228 24.488 145.114 24.488C145.967 24.488 146.708 24.68 147.338 25.064C147.978 25.4373 148.447 25.9387 148.746 26.568L147.034 27.112C146.842 26.76 146.57 26.488 146.218 26.296C145.876 26.0933 145.498 25.992 145.082 25.992C144.612 25.992 144.186 26.1147 143.802 26.36C143.428 26.5947 143.13 26.9253 142.906 27.352C142.692 27.768 142.586 28.2533 142.586 28.808C142.586 29.3413 142.698 29.8267 142.922 30.264C143.146 30.6907 143.444 31.032 143.818 31.288C144.202 31.5333 144.628 31.656 145.098 31.656C145.386 31.656 145.663 31.608 145.93 31.512C146.207 31.4053 146.447 31.2667 146.65 31.096C146.852 30.9147 146.996 30.7173 147.082 30.504L148.81 31.016C148.628 31.432 148.356 31.8 147.994 32.12C147.642 32.44 147.22 32.696 146.73 32.888C146.25 33.0693 145.711 33.16 145.114 33.16ZM154.963 33V29.816C154.643 29.9653 154.312 30.0773 153.971 30.152C153.63 30.216 153.246 30.248 152.819 30.248C151.923 30.248 151.23 30.0133 150.739 29.544C150.259 29.064 150.019 28.3547 150.019 27.416V24.632H151.779V27.192C151.779 27.7787 151.902 28.2107 152.147 28.488C152.392 28.7547 152.787 28.888 153.331 28.888C153.63 28.888 153.928 28.856 154.227 28.792C154.526 28.728 154.771 28.6427 154.963 28.536V24.632H156.739V33H154.963ZM158.868 33V24.648H160.629V30.648L164.869 24.632H166.469V33H164.709V27.128L160.517 33H158.868ZM170.556 33V26.184H167.788V24.632H175.1V26.184H172.316V33H170.556ZM175.792 30.552C175.792 30.0187 175.941 29.5547 176.24 29.16C176.549 28.7547 176.97 28.4453 177.504 28.232C178.037 28.008 178.656 27.896 179.36 27.896C179.733 27.896 180.112 27.9227 180.496 27.976C180.89 28.0293 181.237 28.1147 181.536 28.232V27.704C181.536 27.1173 181.36 26.6587 181.008 26.328C180.656 25.9973 180.149 25.832 179.488 25.832C179.018 25.832 178.576 25.9173 178.16 26.088C177.744 26.248 177.301 26.4773 176.832 26.776L176.24 25.592C176.794 25.2187 177.349 24.9413 177.904 24.76C178.469 24.5787 179.061 24.488 179.68 24.488C180.8 24.488 181.68 24.7867 182.32 25.384C182.97 25.9707 183.296 26.808 183.296 27.896V31.016C183.296 31.2187 183.328 31.3627 183.392 31.448C183.466 31.5333 183.589 31.5813 183.76 31.592V33C183.6 33.032 183.456 33.0533 183.328 33.064C183.2 33.0747 183.093 33.08 183.008 33.08C182.634 33.08 182.352 32.9893 182.16 32.808C181.968 32.6267 181.856 32.4133 181.824 32.168L181.776 31.688C181.413 32.1573 180.949 32.52 180.384 32.776C179.818 33.032 179.248 33.16 178.672 33.16C178.117 33.16 177.621 33.048 177.184 32.824C176.746 32.5893 176.405 32.2747 176.16 31.88C175.914 31.4853 175.792 31.0427 175.792 30.552ZM181.12 31.064C181.248 30.9253 181.349 30.7867 181.424 30.648C181.498 30.5093 181.536 30.3867 181.536 30.28V29.32C181.237 29.2027 180.922 29.1173 180.592 29.064C180.261 29 179.936 28.968 179.616 28.968C178.976 28.968 178.453 29.096 178.048 29.352C177.653 29.608 177.456 29.96 177.456 30.408C177.456 30.6533 177.52 30.888 177.648 31.112C177.786 31.336 177.978 31.5173 178.224 31.656C178.48 31.7947 178.794 31.864 179.168 31.864C179.552 31.864 179.92 31.7893 180.272 31.64C180.624 31.4907 180.906 31.2987 181.12 31.064ZM187.321 33V26.184H184.553V24.632H191.865V26.184H189.081V33H187.321ZM193.181 33V24.632H194.941V27.384H196.941C197.933 27.384 198.685 27.6347 199.197 28.136C199.72 28.6373 199.981 29.2987 199.981 30.12C199.981 30.6747 199.869 31.1707 199.645 31.608C199.421 32.0453 199.09 32.3867 198.653 32.632C198.226 32.8773 197.693 33 197.053 33H193.181ZM194.941 31.64H196.781C197.133 31.64 197.416 31.576 197.629 31.448C197.842 31.3093 198.002 31.128 198.109 30.904C198.216 30.6693 198.269 30.4187 198.269 30.152C198.269 29.8853 198.221 29.6453 198.125 29.432C198.029 29.208 197.869 29.032 197.645 28.904C197.432 28.7653 197.138 28.696 196.765 28.696H194.941V31.64ZM209.161 33.16C208.51 33.16 207.918 33.048 207.385 32.824C206.862 32.5893 206.409 32.2693 206.025 31.864C205.641 31.4587 205.342 30.9947 205.129 30.472C204.926 29.9493 204.825 29.3947 204.825 28.808C204.825 28.0187 205.001 27.2987 205.353 26.648C205.715 25.9973 206.217 25.4747 206.857 25.08C207.507 24.6853 208.275 24.488 209.161 24.488C210.014 24.488 210.755 24.68 211.385 25.064C212.025 25.4373 212.494 25.9387 212.793 26.568L211.081 27.112C210.889 26.76 210.617 26.488 210.265 26.296C209.923 26.0933 209.545 25.992 209.129 25.992C208.659 25.992 208.233 26.1147 207.849 26.36C207.475 26.5947 207.177 26.9253 206.953 27.352C206.739 27.768 206.633 28.2533 206.633 28.808C206.633 29.3413 206.745 29.8267 206.969 30.264C207.193 30.6907 207.491 31.032 207.865 31.288C208.249 31.5333 208.675 31.656 209.145 31.656C209.433 31.656 209.71 31.608 209.977 31.512C210.254 31.4053 210.494 31.2667 210.697 31.096C210.899 30.9147 211.043 30.7173 211.129 30.504L212.857 31.016C212.675 31.432 212.403 31.8 212.041 32.12C211.689 32.44 211.267 32.696 210.777 32.888C210.297 33.0693 209.758 33.16 209.161 33.16ZM216.29 33V26.184H213.522V24.632H220.834V26.184H218.05V33H216.29ZM225.91 33.16C225.248 33.16 224.656 33.048 224.134 32.824C223.611 32.5893 223.158 32.2693 222.774 31.864C222.4 31.4587 222.112 31 221.91 30.488C221.707 29.9653 221.606 29.4107 221.606 28.824C221.606 28.2373 221.707 27.6827 221.91 27.16C222.112 26.6373 222.4 26.1787 222.774 25.784C223.158 25.3787 223.611 25.064 224.134 24.84C224.667 24.6053 225.259 24.488 225.91 24.488C226.56 24.488 227.147 24.6053 227.67 24.84C228.203 25.064 228.656 25.3787 229.03 25.784C229.414 26.1787 229.707 26.6373 229.91 27.16C230.112 27.6827 230.214 28.2373 230.214 28.824C230.214 29.4107 230.112 29.9653 229.91 30.488C229.707 31 229.414 31.4587 229.03 31.864C228.656 32.2693 228.203 32.5893 227.67 32.824C227.147 33.048 226.56 33.16 225.91 33.16ZM223.414 28.84C223.414 29.3733 223.526 29.8533 223.75 30.28C223.974 30.7067 224.272 31.0427 224.646 31.288C225.019 31.5333 225.44 31.656 225.91 31.656C226.368 31.656 226.784 31.5333 227.158 31.288C227.542 31.032 227.846 30.6907 228.07 30.264C228.294 29.8267 228.406 29.3467 228.406 28.824C228.406 28.2907 228.294 27.8107 228.07 27.384C227.846 26.9573 227.542 26.6213 227.158 26.376C226.784 26.12 226.368 25.992 225.91 25.992C225.44 25.992 225.019 26.12 224.646 26.376C224.272 26.632 223.974 26.9733 223.75 27.4C223.526 27.816 223.414 28.296 223.414 28.84ZM231.775 33V24.648H233.535V30.648L237.775 24.632H239.375V33H237.615V27.128L233.423 33H231.775ZM241.478 33V24.632H243.302L246.182 29.8L249.078 24.632H250.87V33H249.19V27.112L246.726 31.512H245.622L243.142 27.112V33H241.478ZM256.738 33.16C256.077 33.16 255.485 33.048 254.962 32.824C254.439 32.5893 253.986 32.2693 253.602 31.864C253.229 31.4587 252.941 31 252.738 30.488C252.535 29.9653 252.434 29.4107 252.434 28.824C252.434 28.2373 252.535 27.6827 252.738 27.16C252.941 26.6373 253.229 26.1787 253.602 25.784C253.986 25.3787 254.439 25.064 254.962 24.84C255.495 24.6053 256.087 24.488 256.738 24.488C257.389 24.488 257.975 24.6053 258.498 24.84C259.031 25.064 259.485 25.3787 259.858 25.784C260.242 26.1787 260.535 26.6373 260.738 27.16C260.941 27.6827 261.042 28.2373 261.042 28.824C261.042 29.4107 260.941 29.9653 260.738 30.488C260.535 31 260.242 31.4587 259.858 31.864C259.485 32.2693 259.031 32.5893 258.498 32.824C257.975 33.048 257.389 33.16 256.738 33.16ZM254.242 28.84C254.242 29.3733 254.354 29.8533 254.578 30.28C254.802 30.7067 255.101 31.0427 255.474 31.288C255.847 31.5333 256.269 31.656 256.738 31.656C257.197 31.656 257.613 31.5333 257.986 31.288C258.37 31.032 258.674 30.6907 258.898 30.264C259.122 29.8267 259.234 29.3467 259.234 28.824C259.234 28.2907 259.122 27.8107 258.898 27.384C258.674 26.9573 258.37 26.6213 257.986 26.376C257.613 26.12 257.197 25.992 256.738 25.992C256.269 25.992 255.847 26.12 255.474 26.376C255.101 26.632 254.802 26.9733 254.578 27.4C254.354 27.816 254.242 28.296 254.242 28.84ZM266.395 33.16C265.744 33.16 265.152 33.048 264.619 32.824C264.096 32.5893 263.643 32.2693 263.259 31.864C262.875 31.4587 262.576 30.9947 262.363 30.472C262.16 29.9493 262.059 29.3947 262.059 28.808C262.059 28.0187 262.235 27.2987 262.587 26.648C262.95 25.9973 263.451 25.4747 264.091 25.08C264.742 24.6853 265.51 24.488 266.395 24.488C267.248 24.488 267.99 24.68 268.619 25.064C269.259 25.4373 269.728 25.9387 270.027 26.568L268.315 27.112C268.123 26.76 267.851 26.488 267.499 26.296C267.158 26.0933 266.779 25.992 266.363 25.992C265.894 25.992 265.467 26.1147 265.083 26.36C264.71 26.5947 264.411 26.9253 264.187 27.352C263.974 27.768 263.867 28.2533 263.867 28.808C263.867 29.3413 263.979 29.8267 264.203 30.264C264.427 30.6907 264.726 31.032 265.099 31.288C265.483 31.5333 265.91 31.656 266.379 31.656C266.667 31.656 266.944 31.608 267.211 31.512C267.488 31.4053 267.728 31.2667 267.931 31.096C268.134 30.9147 268.278 30.7173 268.363 30.504L270.091 31.016C269.91 31.432 269.638 31.8 269.275 32.12C268.923 32.44 268.502 32.696 268.011 32.888C267.531 33.0693 266.992 33.16 266.395 33.16ZM273.524 33V26.184H270.756V24.632H278.068V26.184H275.284V33H273.524ZM279.384 33V24.632H281.144V27.384H283.144C284.136 27.384 284.888 27.6347 285.4 28.136C285.923 28.6373 286.184 29.2987 286.184 30.12C286.184 30.6747 286.072 31.1707 285.848 31.608C285.624 32.0453 285.293 32.3867 284.856 32.632C284.429 32.8773 283.896 33 283.256 33H279.384ZM281.144 31.64H282.984C283.336 31.64 283.619 31.576 283.832 31.448C284.045 31.3093 284.205 31.128 284.312 30.904C284.419 30.6693 284.472 30.4187 284.472 30.152C284.472 29.8853 284.424 29.6453 284.328 29.432C284.232 29.208 284.072 29.032 283.848 28.904C283.635 28.7653 283.341 28.696 282.968 28.696H281.144V31.64Z" fill="#181818"/>
<rect x="1" y="1" width="398" height="54" rx="7" stroke="#181818" stroke-width="2"/>
</svg>