<svg width="91" height="32" viewBox="0 0 91 32" fill="none" xmlns="http://www.w3.org/2000/svg">
<path d="M16.528 24.176V20.416H17.072C17.3707 20.416 17.6267 20.2987 17.84 20.064C18.064 19.8293 18.2507 19.456 18.4 18.944C18.56 18.432 18.6827 17.76 18.768 16.928C18.864 16.0853 18.9333 15.056 18.976 13.84L19.056 10.64H26.368V20.416H27.808V24.176H26.224V22H18.112V24.176H16.528ZM19.344 20.416H24.56V12.224H20.72L20.672 14.08C20.64 15.3067 20.576 16.3467 20.48 17.2C20.384 18.0427 20.2453 18.7253 20.064 19.248C19.8827 19.7707 19.6427 20.16 19.344 20.416ZM29.4154 22V13.648H31.1754V19.648L35.4154 13.632H37.0154V22H35.2554V16.128L31.0634 22H29.4154ZM41.9185 22.128C41.0652 22.128 40.3452 21.9733 39.7585 21.664C39.1825 21.344 38.7398 20.9067 38.4305 20.352L39.8545 19.712C40.0358 20.0213 40.2918 20.2667 40.6225 20.448C40.9532 20.6187 41.3532 20.704 41.8225 20.704C42.3878 20.704 42.8252 20.5867 43.1345 20.352C43.4438 20.1173 43.5985 19.808 43.5985 19.424C43.5985 19.072 43.4705 18.7893 43.2145 18.576C42.9585 18.352 42.5958 18.2347 42.1265 18.224H41.2625V17.104H42.1585C42.3718 17.104 42.5585 17.056 42.7185 16.96C42.8785 16.864 43.0012 16.736 43.0865 16.576C43.1825 16.4053 43.2305 16.2133 43.2305 16C43.2305 15.68 43.1078 15.424 42.8625 15.232C42.6278 15.0293 42.2705 14.928 41.7905 14.928C41.3745 14.928 41.0332 15.008 40.7665 15.168C40.4998 15.3173 40.2812 15.5413 40.1105 15.84L38.7825 15.136C39.0598 14.624 39.4652 14.224 39.9985 13.936C40.5318 13.648 41.1558 13.504 41.8705 13.504C42.4358 13.504 42.9372 13.5947 43.3745 13.776C43.8225 13.9467 44.1692 14.2027 44.4145 14.544C44.6705 14.8747 44.7985 15.2853 44.7985 15.776C44.7985 16.16 44.7078 16.5227 44.5265 16.864C44.3452 17.1947 44.0625 17.44 43.6785 17.6C44.1905 17.7493 44.5745 18.0107 44.8305 18.384C45.0972 18.7467 45.2305 19.1787 45.2305 19.68C45.2305 20.192 45.0865 20.6347 44.7985 21.008C44.5212 21.3707 44.1318 21.648 43.6305 21.84C43.1292 22.032 42.5585 22.128 41.9185 22.128ZM46.2449 19.552C46.2449 19.0187 46.3942 18.5547 46.6929 18.16C47.0022 17.7547 47.4235 17.4453 47.9569 17.232C48.4902 17.008 49.1089 16.896 49.8129 16.896C50.1862 16.896 50.5649 16.9227 50.9489 16.976C51.3435 17.0293 51.6902 17.1147 51.9889 17.232V16.704C51.9889 16.1173 51.8129 15.6587 51.4609 15.328C51.1089 14.9973 50.6022 14.832 49.9409 14.832C49.4715 14.832 49.0289 14.9173 48.6129 15.088C48.1969 15.248 47.7542 15.4773 47.2849 15.776L46.6929 14.592C47.2475 14.2187 47.8022 13.9413 48.3569 13.76C48.9222 13.5787 49.5142 13.488 50.1329 13.488C51.2529 13.488 52.1329 13.7867 52.7729 14.384C53.4235 14.9707 53.7489 15.808 53.7489 16.896V20.016C53.7489 20.2187 53.7809 20.3627 53.8449 20.448C53.9195 20.5333 54.0422 20.5813 54.2129 20.592V22C54.0529 22.032 53.9089 22.0533 53.7809 22.064C53.6529 22.0747 53.5462 22.08 53.4609 22.08C53.0875 22.08 52.8049 21.9893 52.6129 21.808C52.4209 21.6267 52.3089 21.4133 52.2769 21.168L52.2289 20.688C51.8662 21.1573 51.4022 21.52 50.8369 21.776C50.2715 22.032 49.7009 22.16 49.1249 22.16C48.5702 22.16 48.0742 22.048 47.6369 21.824C47.1995 21.5893 46.8582 21.2747 46.6129 20.88C46.3675 20.4853 46.2449 20.0427 46.2449 19.552ZM51.5729 20.064C51.7009 19.9253 51.8022 19.7867 51.8769 19.648C51.9515 19.5093 51.9889 19.3867 51.9889 19.28V18.32C51.6902 18.2027 51.3755 18.1173 51.0449 18.064C50.7142 18 50.3889 17.968 50.0689 17.968C49.4289 17.968 48.9062 18.096 48.5009 18.352C48.1062 18.608 47.9089 18.96 47.9089 19.408C47.9089 19.6533 47.9729 19.888 48.1009 20.112C48.2395 20.336 48.4315 20.5173 48.6769 20.656C48.9329 20.7947 49.2475 20.864 49.6209 20.864C50.0049 20.864 50.3729 20.7893 50.7249 20.64C51.0769 20.4907 51.3595 20.2987 51.5729 20.064ZM55.8841 22V13.648H57.6441V19.648L61.8841 13.632H63.4841V22H61.7241V16.128L57.5321 22H55.8841ZM59.6921 12.768C58.9028 12.768 58.2895 12.5707 57.8521 12.176C57.4255 11.7813 57.2121 11.2853 57.2121 10.688H58.3641C58.3641 10.9973 58.4655 11.2533 58.6681 11.456C58.8815 11.6587 59.2228 11.76 59.6921 11.76C60.1508 11.76 60.4761 11.664 60.6681 11.472C60.8708 11.28 60.9935 11.0187 61.0361 10.688H62.1881C62.1881 11.2853 61.9695 11.7813 61.5321 12.176C61.1055 12.5707 60.4921 12.768 59.6921 12.768ZM65.5872 22V13.632H67.3473V16.96H71.2353V13.632H72.9953V22H71.2353V18.48H67.3473V22H65.5872Z" fill="#181818"/>
<rect x="0.5" y="0.5" width="90" height="31" rx="15.5" stroke="black"/>
</svg>