<svg width="146" height="32" viewBox="0 0 146 32" fill="none" xmlns="http://www.w3.org/2000/svg">
<path d="M16.56 16.24C16.56 15.5467 16.6827 14.8693 16.928 14.208C17.1733 13.536 17.5307 12.928 18 12.384C18.48 11.8293 19.0613 11.392 19.744 11.072C20.4267 10.7413 21.2 10.576 22.064 10.576C23.088 10.576 23.9733 10.8107 24.72 11.28C25.4667 11.7387 26.0213 12.3307 26.384 13.056L24.976 14C24.7627 13.5413 24.4907 13.1787 24.16 12.912C23.84 12.6453 23.488 12.4587 23.104 12.352C22.7307 12.2453 22.3627 12.192 22 12.192C21.4027 12.192 20.88 12.3147 20.432 12.56C19.984 12.7947 19.6053 13.1093 19.296 13.504C18.9973 13.8987 18.768 14.3413 18.608 14.832C18.4587 15.3227 18.384 15.8133 18.384 16.304C18.384 16.848 18.4747 17.376 18.656 17.888C18.8373 18.3893 19.088 18.8373 19.408 19.232C19.7387 19.616 20.128 19.92 20.576 20.144C21.024 20.368 21.5147 20.48 22.048 20.48C22.4107 20.48 22.7893 20.416 23.184 20.288C23.5787 20.16 23.9413 19.9627 24.272 19.696C24.6133 19.4187 24.88 19.056 25.072 18.608L26.56 19.456C26.3253 20.0213 25.9573 20.5013 25.456 20.896C24.9653 21.2907 24.4107 21.5893 23.792 21.792C23.184 21.9947 22.5813 22.096 21.984 22.096C21.184 22.096 20.4533 21.9307 19.792 21.6C19.1307 21.2587 18.56 20.8107 18.08 20.256C17.6 19.6907 17.2267 19.0613 16.96 18.368C16.6933 17.664 16.56 16.9547 16.56 16.24ZM27.3855 19.552C27.3855 19.0187 27.5348 18.5547 27.8335 18.16C28.1428 17.7547 28.5642 17.4453 29.0975 17.232C29.6308 17.008 30.2495 16.896 30.9535 16.896C31.3268 16.896 31.7055 16.9227 32.0895 16.976C32.4842 17.0293 32.8308 17.1147 33.1295 17.232V16.704C33.1295 16.1173 32.9535 15.6587 32.6015 15.328C32.2495 14.9973 31.7428 14.832 31.0815 14.832C30.6122 14.832 30.1695 14.9173 29.7535 15.088C29.3375 15.248 28.8948 15.4773 28.4255 15.776L27.8335 14.592C28.3882 14.2187 28.9428 13.9413 29.4975 13.76C30.0628 13.5787 30.6548 13.488 31.2735 13.488C32.3935 13.488 33.2735 13.7867 33.9135 14.384C34.5642 14.9707 34.8895 15.808 34.8895 16.896V20.016C34.8895 20.2187 34.9215 20.3627 34.9855 20.448C35.0602 20.5333 35.1828 20.5813 35.3535 20.592V22C35.1935 22.032 35.0495 22.0533 34.9215 22.064C34.7935 22.0747 34.6868 22.08 34.6015 22.08C34.2282 22.08 33.9455 21.9893 33.7535 21.808C33.5615 21.6267 33.4495 21.4133 33.4175 21.168L33.3695 20.688C33.0068 21.1573 32.5428 21.52 31.9775 21.776C31.4122 22.032 30.8415 22.16 30.2655 22.16C29.7108 22.16 29.2148 22.048 28.7775 21.824C28.3402 21.5893 27.9988 21.2747 27.7535 20.88C27.5082 20.4853 27.3855 20.0427 27.3855 19.552ZM32.7135 20.064C32.8415 19.9253 32.9428 19.7867 33.0175 19.648C33.0922 19.5093 33.1295 19.3867 33.1295 19.28V18.32C32.8308 18.2027 32.5162 18.1173 32.1855 18.064C31.8548 18 31.5295 17.968 31.2095 17.968C30.5695 17.968 30.0468 18.096 29.6415 18.352C29.2468 18.608 29.0495 18.96 29.0495 19.408C29.0495 19.6533 29.1135 19.888 29.2415 20.112C29.3802 20.336 29.5722 20.5173 29.8175 20.656C30.0735 20.7947 30.3882 20.864 30.7615 20.864C31.1455 20.864 31.5135 20.7893 31.8655 20.64C32.2175 20.4907 32.5002 20.2987 32.7135 20.064ZM37.0247 22V13.648H38.7848V19.648L43.0248 13.632H44.6248V22H42.8648V16.128L38.6728 22H37.0247ZM40.8328 12.768C40.0434 12.768 39.4301 12.5707 38.9928 12.176C38.5661 11.7813 38.3528 11.2853 38.3528 10.688H39.5048C39.5048 10.9973 39.6061 11.2533 39.8088 11.456C40.0221 11.6587 40.3634 11.76 40.8328 11.76C41.2914 11.76 41.6168 11.664 41.8088 11.472C42.0114 11.28 42.1341 11.0187 42.1768 10.688H43.3288C43.3288 11.2853 43.1101 11.7813 42.6728 12.176C42.2461 12.5707 41.6328 12.768 40.8328 12.768ZM48.7119 22V15.184H45.9439V13.632H53.2559V15.184H50.4719V22H48.7119ZM58.5247 22V13.632H65.7248V22H63.9648V15.184H60.2848V22H58.5247ZM71.6129 22.16C70.9515 22.16 70.3595 22.048 69.8369 21.824C69.3142 21.5893 68.8609 21.2693 68.4769 20.864C68.1035 20.4587 67.8155 20 67.6129 19.488C67.4102 18.9653 67.3089 18.4107 67.3089 17.824C67.3089 17.2373 67.4102 16.6827 67.6129 16.16C67.8155 15.6373 68.1035 15.1787 68.4769 14.784C68.8609 14.3787 69.3142 14.064 69.8369 13.84C70.3702 13.6053 70.9622 13.488 71.6129 13.488C72.2635 13.488 72.8502 13.6053 73.3729 13.84C73.9062 14.064 74.3595 14.3787 74.7329 14.784C75.1169 15.1787 75.4102 15.6373 75.6129 16.16C75.8155 16.6827 75.9169 17.2373 75.9169 17.824C75.9169 18.4107 75.8155 18.9653 75.6129 19.488C75.4102 20 75.1169 20.4587 74.7329 20.864C74.3595 21.2693 73.9062 21.5893 73.3729 21.824C72.8502 22.048 72.2635 22.16 71.6129 22.16ZM69.1169 17.84C69.1169 18.3733 69.2289 18.8533 69.4529 19.28C69.6769 19.7067 69.9755 20.0427 70.3489 20.288C70.7222 20.5333 71.1435 20.656 71.6129 20.656C72.0715 20.656 72.4875 20.5333 72.8609 20.288C73.2449 20.032 73.5489 19.6907 73.7729 19.264C73.9969 18.8267 74.1089 18.3467 74.1089 17.824C74.1089 17.2907 73.9969 16.8107 73.7729 16.384C73.5489 15.9573 73.2449 15.6213 72.8609 15.376C72.4875 15.12 72.0715 14.992 71.6129 14.992C71.1435 14.992 70.7222 15.12 70.3489 15.376C69.9755 15.632 69.6769 15.9733 69.4529 16.4C69.2289 16.816 69.1169 17.296 69.1169 17.84ZM76.6779 24V20.448H76.8699C77.0939 20.448 77.3019 20.384 77.4939 20.256C77.6859 20.128 77.8565 19.9093 78.0059 19.6C78.1552 19.28 78.2779 18.8427 78.3739 18.288C78.4699 17.7227 78.5285 17.0133 78.5499 16.16L78.6459 13.632H84.6139V20.448H85.7659V24H84.2139V22H78.2139V24H76.6779ZM79.1899 20.448H82.8539V15.152H80.1979L80.1499 16.32C80.1179 17.1307 80.0592 17.8133 79.9739 18.368C79.8992 18.9227 79.7925 19.3653 79.6539 19.696C79.5259 20.0267 79.3712 20.2773 79.1899 20.448ZM91.2122 22V13.632H92.9563V16.944H93.7883L96.2523 13.632H98.2043L95.1483 17.68L98.5563 22H96.5243L93.7723 18.528H92.9563V22H91.2122ZM99.2278 22.08V20.512C99.4944 20.512 99.7344 20.448 99.9478 20.32C100.161 20.1813 100.348 19.9573 100.508 19.648C100.668 19.328 100.796 18.8853 100.892 18.32C100.988 17.7547 101.052 17.0347 101.084 16.16L101.196 13.632H107.164V22H105.404V15.184H102.748L102.716 16.32C102.673 17.44 102.572 18.3733 102.412 19.12C102.252 19.856 102.028 20.4427 101.74 20.88C101.462 21.3067 101.11 21.616 100.684 21.808C100.268 21.9893 99.7824 22.08 99.2278 22.08ZM116.475 22.16C115.739 22.16 115.083 22.0053 114.507 21.696C113.941 21.3867 113.483 20.9653 113.131 20.432C112.789 19.888 112.571 19.2747 112.475 18.592H111.035V22H109.275V13.632H111.035V17.056H112.475C112.571 16.352 112.795 15.7333 113.147 15.2C113.509 14.656 113.973 14.2347 114.539 13.936C115.104 13.6373 115.749 13.488 116.475 13.488C117.349 13.488 118.096 13.6853 118.715 14.08C119.333 14.4747 119.808 14.9973 120.139 15.648C120.469 16.2987 120.635 17.024 120.635 17.824C120.635 18.6453 120.464 19.3813 120.123 20.032C119.792 20.6827 119.312 21.2 118.683 21.584C118.064 21.968 117.328 22.16 116.475 22.16ZM116.475 20.656C116.944 20.656 117.355 20.5387 117.707 20.304C118.059 20.0587 118.336 19.728 118.539 19.312C118.741 18.8853 118.843 18.3893 118.843 17.824C118.843 17.248 118.741 16.752 118.539 16.336C118.336 15.9093 118.053 15.5787 117.691 15.344C117.328 15.1093 116.923 14.992 116.475 14.992C116.027 14.992 115.627 15.1093 115.275 15.344C114.933 15.5787 114.667 15.9093 114.475 16.336C114.283 16.7627 114.187 17.2587 114.187 17.824C114.187 18.4 114.283 18.9013 114.475 19.328C114.677 19.7547 114.949 20.0853 115.291 20.32C115.643 20.544 116.037 20.656 116.475 20.656ZM126.916 22V18.816C126.596 18.9653 126.266 19.0773 125.924 19.152C125.583 19.216 125.199 19.248 124.772 19.248C123.876 19.248 123.183 19.0133 122.692 18.544C122.212 18.064 121.972 17.3547 121.972 16.416V13.632H123.732V16.192C123.732 16.7787 123.855 17.2107 124.1 17.488C124.346 17.7547 124.74 17.888 125.284 17.888C125.583 17.888 125.882 17.856 126.18 17.792C126.479 17.728 126.724 17.6427 126.916 17.536V13.632H128.692V22H126.916Z" fill="#181818"/>
<rect x="0.5" y="0.5" width="145" height="31" rx="15.5" stroke="black"/>
</svg>